+--   a --+--   b --+--   c --+--   d --+--  f1 --+--  f2 --+--  f3 --+--   f --+--   f --+
+     0   +     0   +     0   +     0   +     1   +     0   +     0   +     0   +     0   +
+---------+---------+---------+---------+---------+---------+---------+---------+---------+
+     0   +     0   +     0   +     1   +     1   +     0   +     0   +     0   +     0   +
+---------+---------+---------+---------+---------+---------+---------+---------+---------+
+     0   +     0   +     1   +     0   +     0   +     0   +     0   +     0   +     0   +
+---------+---------+---------+---------+---------+---------+---------+---------+---------+
+     0   +     0   +     1   +     1   +     0   +     0   +     0   +     0   +     0   +
+---------+---------+---------+---------+---------+---------+---------+---------+---------+
+     0   +     1   +     0   +     0   +     0   +     0   +     0   +     0   +     0   +
+---------+---------+---------+---------+---------+---------+---------+---------+---------+
+     0   +     1   +     0   +     1   +     0   +     0   +     0   +     0   +     0   +
+---------+---------+---------+---------+---------+---------+---------+---------+---------+
+     0   +     1   +     1   +     0   +     0   +     0   +     0   +     0   +     0   +
+---------+---------+---------+---------+---------+---------+---------+---------+---------+
+     0   +     1   +     1   +     1   +     0   +     0   +     0   +     0   +     0   +
+---------+---------+---------+---------+---------+---------+---------+---------+---------+
+     1   +     0   +     0   +     0   +     0   +     0   +     0   +     0   +     0   +
+---------+---------+---------+---------+---------+---------+---------+---------+---------+
+     1   +     0   +     0   +     1   +     0   +     0   +     0   +     0   +     0   +
+---------+---------+---------+---------+---------+---------+---------+---------+---------+
+     1   +     0   +     1   +     0   +     0   +     0   +     0   +     0   +     0   +
+---------+---------+---------+---------+---------+---------+---------+---------+---------+
+     1   +     0   +     1   +     1   +     0   +     0   +     0   +     0   +     0   +
+---------+---------+---------+---------+---------+---------+---------+---------+---------+
+     1   +     1   +     0   +     0   +     0   +     0   +     1   +     1   +     1   +
+---------+---------+---------+---------+---------+---------+---------+---------+---------+
+     1   +     1   +     0   +     1   +     0   +     0   +     1   +     1   +     1   +
+---------+---------+---------+---------+---------+---------+---------+---------+---------+
+     1   +     1   +     1   +     0   +     0   +     1   +     0   +     0   +     0   +
+---------+---------+---------+---------+---------+---------+---------+---------+---------+
+     1   +     1   +     1   +     1   +     0   +     1   +     0   +     0   +     0   +
+---------+---------+---------+---------+---------+---------+---------+---------+---------+
